{   
    "hosting": {
      "public": "public",
      "ignore": [ 
       "firebase.json",
       "**/.*",
       "**/node_modules/**"
 ],
     "rewrites": [
       {
         "source": "**",
         "destination": "/index.html"
       }
     ]
   }
 }